sample-inventory
…
some.samp <- 
  long.dfll %>%
  group_by(id) %>%
  filter(any(collected)) %>%
  mutate(id = as.factor(id)) %>%
  arrange(collected)

some.samp %>%
  group_by(id, biospecimen) %>%
  summarize(n = sum(collected))

## `summarise()` has grouped output by 'id'. You can override using the `.groups` argument.

## # A tibble: 172 x 3
## # Groups:   id [43]
##    id    biospecimen     n
##    <fct> <chr>       <int>
##  1 1     blood           4
##  2 1     stool.tub       0
##  3 1     stool.vial      4
##  4 1     urine           4
##  5 9     blood           1
##  6 9     stool.tub       0
##  7 9     stool.vial      0
##  8 9     urine           1
##  9 10    blood           4
## 10 10    stool.tub       0
## #  with 162 more rows
…
summary.samp.w <- 
summary.samp %>%
  spread(key = "biospecimen", value = "n") %>%
  full_join(sum.ordering) %>%
  arrange(-sum)

## Joining, by = "id"

summary.samp.w 

## # A tibble: 43 x 6
## # Groups:   id [43]
##    id    blood stool.tub stool.vial urine   sum
##    <fct> <int>     <int>      <int> <int> <int>
##  1 57        4         4          4     4    16
##  2 36        4         3          4     4    15
##  3 53        4         3          4     4    15
##  4 54        4         3          4     4    15
##  5 60        4         3          4     4    15
##  6 61        4         3          4     4    15
##  7 62        4         3          4     4    15
##  8 63        4         3          4     4    15
##  9 64        4         3          4     4    15
## 10 70        4         3          4     4    15
## #  with 33 more rows
…
